========================================
= AVL -  Linear Equation Solver - GCCG =
========================================


Input File:  drall.geo.bin
========================================

Output File:  drall.geo.bin_summary.out
========================================

No. of Active Cells:  47312
========================================

Iterations Count: 335
========================================

Residual Ratio: 9.876340e-11
========================================

Addresses Solution (Minima)  	 Addresses Solution (Maxima)
===========================         ===========================
   45432 	 -893.718466 		    11841 	 295.868308
   31761 	 -869.949775 		     2331 	 295.848649
   45593 	 -805.436213 		    33414 	 295.500164
    6553 	 -721.787931 		     6372 	 295.490442
    4935 	 -718.459766 		     8913 	 295.461997
   29613 	 -696.531558 		    36915 	 295.442210
    3174 	 -690.856948 		    41282 	 295.129151
   34139 	 -688.540710 		     1648 	 295.011798
   38623 	 -685.927279 		     2749 	 294.844142
   14903 	 -681.084278 		    12877 	 294.623495
========================================
